<?xml version="1.0" encoding="UTF-8"?>
<glyph name="quoteleft" format="1">
  <advance width="280"/>
  <unicode hex="2018"/>
  <outline>
    <component base="comma" xScale="-1" yScale="-1" xOffset="292.059039319106" yOffset="594"/>
  </outline>
  <lib>
    <dict>
      <key>com.typemytype.robofont.mark</key>
      <array>
        <real>0.0008</real>
        <real>0.8221</real>
        <real>0.2832</real>
        <real>1.0</real>
      </array>
    </dict>
  </lib>
</glyph>
