<?xml version="1.0" encoding="UTF-8"?>
<glyph name="at" format="1">
  <advance width="927"/>
  <unicode hex="0040"/>
  <outline>
    <contour>
      <point x="315" y="102" type="curve"/>
      <point x="315" y="216"/>
      <point x="459" y="478"/>
      <point x="571" y="478" type="curve"/>
      <point x="603" y="478"/>
      <point x="632" y="462"/>
      <point x="632" y="420" type="curve" smooth="yes"/>
      <point x="632" y="310"/>
      <point x="453" y="52"/>
      <point x="359" y="52" type="curve"/>
      <point x="334" y="52"/>
      <point x="315" y="65"/>
    </contour>
    <contour>
      <point x="873" y="310" type="curve"/>
      <point x="873" y="508"/>
      <point x="743" y="664"/>
      <point x="500" y="664" type="curve"/>
      <point x="254" y="664"/>
      <point x="54" y="478"/>
      <point x="54" y="218" type="curve"/>
      <point x="54" y="-52"/>
      <point x="253" y="-187"/>
      <point x="473" y="-187" type="curve" smooth="yes"/>
      <point x="486" y="-187"/>
      <point x="499" y="-186"/>
      <point x="512" y="-185" type="curve"/>
      <point x="512" y="-151" type="line"/>
      <point x="499" y="-152"/>
      <point x="486" y="-153"/>
      <point x="473" y="-153" type="curve" smooth="yes"/>
      <point x="273" y="-153"/>
      <point x="134" y="-32"/>
      <point x="134" y="218" type="curve"/>
      <point x="134" y="448"/>
      <point x="274" y="630"/>
      <point x="500" y="630" type="curve"/>
      <point x="723" y="630"/>
      <point x="835" y="488"/>
      <point x="835" y="310" type="curve"/>
      <point x="835" y="113"/>
      <point x="706" y="39"/>
      <point x="622" y="39" type="curve"/>
      <point x="611" y="49" type="line"/>
      <point x="745" y="510" type="line"/>
      <point x="659" y="510" type="line"/>
      <point x="652" y="488" type="line"/>
      <point x="642" y="488" type="line"/>
      <point x="636" y="494"/>
      <point x="617" y="510"/>
      <point x="573" y="510" type="curve"/>
      <point x="402" y="510"/>
      <point x="215" y="246"/>
      <point x="215" y="88" type="curve"/>
      <point x="215" y="16"/>
      <point x="257" y="-10"/>
      <point x="315" y="-10" type="curve"/>
      <point x="410" y="-10"/>
      <point x="499" y="80"/>
      <point x="583" y="230" type="curve"/>
      <point x="597" y="230" type="line"/>
      <point x="552" y="116" type="line" smooth="yes"/>
      <point x="532" y="65"/>
      <point x="520" y="18"/>
      <point x="552" y="0" type="curve"/>
      <point x="612" y="0" type="line"/>
      <point x="711" y="0"/>
      <point x="873" y="82"/>
    </contour>
  </outline>
  <lib>
    <dict>
      <key>com.typemytype.robofont.guides</key>
      <array>
        <dict>
          <key>angle</key>
          <real>90.0</real>
          <key>isGlobal</key>
          <false/>
          <key>magnetic</key>
          <integer>5</integer>
          <key>name</key>
          <string></string>
          <key>x</key>
          <integer>688</integer>
          <key>y</key>
          <integer>157</integer>
        </dict>
      </array>
      <key>com.typemytype.robofont.mark</key>
      <array>
        <real>0.0008</real>
        <real>0.8221</real>
        <real>0.2832</real>
        <real>1.0</real>
      </array>
    </dict>
  </lib>
</glyph>
