<?xml version="1.0" encoding="UTF-8"?>
<glyph name="Idieresis" format="1">
  <advance width="412"/>
  <unicode hex="00CF"/>
  <outline>
    <component base="I"/>
    <component base="dieresis" xOffset="76" yOffset="240"/>
  </outline>
  <lib>
    <dict>
      <key>com.typemytype.robofont.mark</key>
      <array>
        <real>0.3739</real>
        <real>0.9739</real>
        <real>0.9829</real>
        <real>1.0</real>
      </array>
    </dict>
  </lib>
</glyph>
