<?xml version="1.0" encoding="UTF-8"?>
<glyph name="endash" format="1">
  <advance width="498"/>
  <unicode hex="2013"/>
  <outline>
    <contour>
      <point x="14" y="238" type="line"/>
      <point x="484" y="238" type="line"/>
      <point x="484" y="272" type="line"/>
      <point x="14" y="272" type="line"/>
    </contour>
  </outline>
  <lib>
    <dict>
      <key>com.typemytype.robofont.mark</key>
      <array>
        <real>0.0008</real>
        <real>0.8221</real>
        <real>0.2832</real>
        <real>1.0</real>
      </array>
    </dict>
  </lib>
</glyph>
