<?xml version="1.0" encoding="UTF-8"?>
<glyph name="quotedblbase" format="1">
  <advance width="510"/>
  <unicode hex="201E"/>
  <outline>
    <component base="comma" xOffset="226"/>
    <component base="comma" xOffset="6"/>
  </outline>
  <lib>
    <dict>
      <key>com.typemytype.robofont.mark</key>
      <array>
        <real>0.0008</real>
        <real>0.8221</real>
        <real>0.2832</real>
        <real>1.0</real>
      </array>
    </dict>
  </lib>
</glyph>
